3	3	3	2
2.5 1.5 1   2.5 1.5 2   2.5 1.5 3
0   1   2
1   2   3
0   1
0	L	0	N
1   C   1   D
2   C   3   D
3   L   1   G   D
4   L   0   G   D
5   L   0   N
6   L   0   G   D
7	C	2	D
8   L   2   N
9   L   0   N
